hw4
…
##      weight        Time        Chick   Diet    weightgain
##  Min.   :74   Min.   :21   24     :1   1:0   Min.   :32  
##  1st Qu.:74   1st Qu.:21   18     :0   2:1   1st Qu.:32  
##  Median :74   Median :21   16     :0   3:0   Median :32  
##  Mean   :74   Mean   :21   15     :0   4:0   Mean   :32  
##  3rd Qu.:74   3rd Qu.:21   13     :0         3rd Qu.:32  
##  Max.   :74   Max.   :21   9      :0         Max.   :32  
##                            (Other):0

dat2$new <- ifelse(dat2$weightgain == max(dat2$weightgain), "max", "other")
dat2$new[dat2$weightgain == min(dat2$weightgain)] <- 'min'
dat2

## # A tibble: 45 x 6
## # Groups:   Chick [45]
##    weight  Time Chick Diet  weightgain new  
##     <dbl> <dbl> <ord> <fct>      <dbl> <chr>
##  1     96    21 13    1             55 other
##  2     98    21 9     1             56 other
##  3    117    21 20    1             76 other
##  4    124    21 10    1             83 other
##  5    142    21 17    1            100 other
##  6    157    21 19    1            114 other
##  7    157    21 4     1            115 other
##  8    157    21 6     1            116 other
##  9    175    21 11    1            132 other
## 10    202    21 3     1            159 other
## #  with 35 more rows
…
